{
  "id": "bindbole_wood_terrain",
  "type": "biome",
  "classes": [
    "place"
  ],
  "tags": [
    "describe_always"
  ],
  "ecoregions": [
    "steep_terrain",
    "wooded_biome"
  ],
  "init": [
    {
      "attributes": {
        "altitude": {
          "maximum": 8000,
          "minimum": 0.0
        }
      },
      "label": "always"
    }
  ],
  "plugs": [
    {
      "name": "in_world",
      "ord": -1,
      "slot_type": "world",
      "value": 0.0
    }
  ],
  "slots": [
    {
      "closure": 0.0,
      "name": "surface",
      "ord": 1,
      "slot_type": "placement",
      "value": -1
    }
  ]
}
