{
	"name": "An Unexpected Journey",
	"version": "0.1",
	"description": [
		"Interactive fiction game inspired in The Hobbit."
	],
	"type": "game",
	"url": "https://gitlab.com/adv_project/adv-mod-lotr-an-unexpected-journey",
	"depends": [ "jsonlib" ]
}
