{
  "id": "place",
  "type": "meta",
  "classes": [],
  "tags": [
    "is_visible",
    "describe_as_fallback"
  ],
  "triggers": [
    {
      "label": "hook_child_leaves_this_place",
      "conditions": [
        {
          "label": "generate_unique_id_for_this_event",
          "test_name": "jwrite_unique_id",
          "write": "event_id"
        },
        {
          "label": "pick_old_parent_as_caller",
          "arg": "@old_parent",
          "test_name": "jwrite_arg",
          "write": "caller"
        },
        {
          "label": "notify_all_in_old_parent",
          "arg": "hook_listen_displacement",
          "query_name": "qpick_all_in_self",
          "test_name": "jtrigger_hook",
          "write": "all_here"
        },
        {
          "label": "notify_all_in_places_in_old_parent",
          "arg": "hook_listen_displacement",
          "query_name": "qpick_all_in_self_and_places",
          "test_name": "jtrigger_hook",
          "write": "all_here"
        }
      ],
      "tags": [],
      "task": "hook_child_leaves"
    },
    {
      "label": "hook_child_enters_this_place",
      "conditions": [
        {
          "label": "generate_unique_id_for_this_event",
          "test_name": "jwrite_unique_id",
          "write": "event_id"
        },
        {
          "label": "pick_proposed_parent_as_caller",
          "arg": "@proposed_parent",
          "test_name": "jwrite_arg",
          "write": "caller"
        },
        {
          "label": "notify_all_in_parent",
          "arg": "hook_listen_displacement",
          "query_name": "qpick_all_in_self_and_places",
          "test_name": "jtrigger_hook",
          "write": "all_here"
        }
      ],
      "tags": [],
      "task": "hook_child_enters"
    }
  ]
}
