{
  "id": "player",
  "type": "meta",
  "classes": [],
  "tags": [],
  "attributes": {
    "connected": false,
    "is_owner": false,
    "last_connected": 0.0
  },
  "triggers": [
    {
      "label": "help_command",
      "conditions": [
        {
          "label": "pick_game_phase",
          "test_name": "jpick_game_phase",
          "write": "help_token"
        },
        {
          "label": "prefix_argument",
          "arg": "_help_",
          "test_name": "jconcat_string",
          "write": "help_token"
        },
        {
          "label": "check_if_we_have_an_argument",
          "arg": "arg1",
          "test_name": "jfield_exists_in_buffer",
          "type": "if"
        },
        {
          "label": "pass_first_argument",
          "arg": "@arg1",
          "test_name": "jconcat_string",
          "write": "help_token"
        },
        {
          "label": "here_else",
          "type": "else"
        },
        {
          "label": "pass_help_as_token",
          "arg": "help",
          "test_name": "jconcat_string",
          "write": "help_token"
        },
        {
          "label": "here_endif",
          "type": "endif"
        },
        {
          "label": "check_available_help",
          "test_name": "jcheck_help_available",
          "type": "if"
        },
        {
          "label": "send_help_response_class",
          "arg": "dialog",
          "test_name": "jwrite_arg",
          "write": "response_type"
        },
        {
          "label": "send_help_response_class",
          "arg": "@help_token",
          "test_name": "jtrigger_response"
        },
        {
          "label": "here_else_",
          "type": "else"
        },
        {
          "label": "send_message",
          "arg": "no_help_available",
          "test_name": "jtrigger_response"
        },
        {
          "label": "here_endif_",
          "type": "endif"
        }
      ],
      "tags": [],
      "task": "help",
      "type": "user_command"
    },
    {
      "label": "show_player_stats_in_game_phase",
      "conditions": [
        {
          "label": "check_if_game_phase_is_game",
          "arg": "game",
          "tags": [
            "negate"
          ],
          "test_name": "jckeck_game_phase",
          "type": "if"
        },
        {
          "label": "send_error_message",
          "arg": "not_in_game_phase",
          "tags": [
            "do_abort"
          ],
          "test_name": "jtrigger_response"
        },
        {
          "label": "here_endif",
          "type": "endif"
        },
        {
          "label": "collect_all_attributes_for_this_player",
          "test_name": "jestimate_all_attributes",
          "write": "yes"
        },
        {
          "label": "pick_response_type",
          "arg": "dialog",
          "test_name": "jwrite_arg",
          "write": "response_type"
        },
        {
          "label": "show_stats",
          "arg": "player_stats",
          "test_name": "jtrigger_response"
        }
      ],
      "tags": [],
      "task": "stats",
      "type": "user_command"
    }
  ]
}
