{
  "id": "bilbo_baggins",
  "type": "unique",
  "classes": [
    "hobbit",
    "explorer"
  ],
  "tags": [
    "describe_always",
    "in_character_menu"
  ],
  "attributes": {
    "bravery": 80,
    "charisma": 80,
    "constitution": 80,
    "curiosity": 80,
    "dexterity": 80,
    "dominance": 80,
    "intelligence": 80,
    "self_preservation": 80,
    "speed": 80,
    "stealth": 80,
    "strength": 80,
    "wisdom": 80
  },
  "triggers": [
    {
      "label": "define_initial_location",
      "conditions": [
        {
          "label": "locate_in_bedroom",
          "arg": "bag_end_bedroom_terrain",
          "tags": ["override_inherited"],
          "type": "parent_class",
          "value": 100
        }
      ],
      "tags": [],
      "task": "define_initial_location"
    }
  ],
  "unique_init": {
    "character_class": "explorer",
    "race": "hobbit"
  }
}
