{
  "id": "bywater_terrain",
  "type": "terrain",
  "classes": [
    "place"
  ],
  "tags": [
    "describe_always"
  ],
  "ecoregions": [],
  "plugs": [
    {
      "name": "in_world",
      "ord": -1,
      "slot_type": "world",
      "value": 0.0
    }
  ],
  "slots": [
    {
      "closure": 0.0,
      "name": "surface",
      "ord": 1,
      "slot_type": "placement",
      "value": -1
    }
  ],
  "triggers": [
    {
      "label": "initialize_terrain",
      "conditions": [
        {
          "label": "copy_created_id_as_backup",
          "arg": "@created_id",
          "test_name": "jwrite_arg",
          "write": "backup"
        },
        {
          "label": "set_proposed_parent_for_carriage",
          "arg": "@backup",
          "test_name": "jwrite_arg",
          "write": "proposed_parent"
        },
        {
          "label": "set_proposed_class_for_carriage",
          "arg": "carriage",
          "tags": [
            "overwrite"
          ],
          "test_name": "jconcat_arg_as_bundled_array",
          "write": "classes"
        },
        {
          "label": "set_proposed_slot_type_for_carriage",
          "arg": "placement",
          "test_name": "jwrite_arg",
          "write": "proposed_slot_type"
        },
        {
          "label": "create_carriage",
          "test_name": "jcreate_object_in_place"
        }
      ],
      "tags": [],
      "task": "hook_create"
    }
  ]
}
