{
  "id": "high_pass_narrow_terrain",
  "type": "terrain",
  "classes": [
    "place"
  ],
  "tags": [
    "describe_always"
  ],
  "ecoregions": [],
  "plugs": [
    {
      "name": "in_world",
      "ord": -1,
      "slot_type": "world",
      "value": 0.0
    }
  ],
  "slots": [
    {
      "closure": 0.0,
      "name": "surface",
      "ord": 1,
      "slot_type": "placement",
      "value": -1
    }
  ]
}
