{
  "modname": "adv-journey",
  "attributes": {
    "accidents_strength": {
      "table": "worlds",
      "type": "numeric"
    },
    "altitude": {
      "table": "tiles",
      "type": "numeric"
    },
    "altitude_maximum": {
      "table": "worlds",
      "type": "numeric"
    },
    "altitude_minimum": {
      "table": "worlds",
      "type": "numeric"
    },
    "atm_humidity": {
      "table": "tiles",
      "type": "numeric"
    },
    "atm_humidity_default": {
      "table": "worlds",
      "type": "numeric"
    },
    "bravery": {
      "table": "spiritual",
      "type": "numeric"
    },
    "charisma": {
      "table": "spiritual",
      "type": "numeric"
    },
    "chrons": {
      "table": "worlds",
      "type": "numeric"
    },
    "collapse_percentage": {
      "table": "worlds",
      "type": "numeric"
    },
    "collapse_randomness": {
      "table": "worlds",
      "type": "numeric"
    },
    "collapse_strength": {
      "table": "worlds",
      "type": "numeric"
    },
    "color": {
      "table": "physical_appearance",
      "type": "numeric"
    },
    "connected": {
      "table": "players",
      "type": "boolean"
    },
    "constitution": {
      "table": "physical",
      "type": "numeric"
    },
    "curiosity": {
      "table": "spiritual",
      "type": "numeric"
    },
    "day_of_year": {
      "table": "stats",
      "type": "numeric"
    },
    "days_per_year": {
      "table": "worlds",
      "type": "numeric"
    },
    "depth": {
      "table": "tiles",
      "type": "numeric"
    },
    "dexterity": {
      "table": "mental",
      "type": "numeric"
    },
    "diaphaneity": {
      "table": "physical_appearance",
      "type": "numeric"
    },
    "dominance": {
      "table": "instincts",
      "type": "numeric"
    },
    "effective_temperature": {
      "table": "tiles",
      "type": "numeric"
    },
    "energy_penalty": {
      "table": "nutrition",
      "type": "numeric"
    },
    "erosion_percentage": {
      "table": "worlds",
      "type": "numeric"
    },
    "erosion_randomness": {
      "table": "worlds",
      "type": "numeric"
    },
    "erosion_strength": {
      "table": "worlds",
      "type": "numeric"
    },
    "geometry_height": {
      "table": "worlds",
      "type": "numeric"
    },
    "geometry_size": {
      "table": "worlds",
      "type": "numeric"
    },
    "geometry_width": {
      "table": "worlds",
      "type": "numeric"
    },
    "hardness": {
      "table": "physical_properties",
      "type": "numeric"
    },
    "health": {
      "table": "game_stats",
      "type": "numeric"
    },
    "humidity_absorption": {
      "table": "tiles",
      "type": "numeric"
    },
    "humidity_absorption_default": {
      "table": "worlds",
      "type": "numeric"
    },
    "hunger": {
      "boundaries": {
        "full": -1,
        "hungry": 500,
        "moderately_hungry": 250,
        "starved_to_death": 1000,
        "starving": 900,
        "very_hungry": 700
      },
      "table": "game_stats",
      "type": "numeric"
    },
    "integrity": {
      "table": "game_stats",
      "type": "numeric"
    },
    "intelligence": {
      "table": "mental",
      "type": "numeric"
    },
    "is_owner": {
      "table": "players",
      "type": "boolean"
    },
    "is_waterfall": {
      "table": "tiles",
      "type": "boolean"
    },
    "land_percentage": {
      "table": "worlds",
      "type": "numeric"
    },
    "last_connected": {
      "table": "players",
      "type": "numeric"
    },
    "latitude": {
      "table": "tiles",
      "type": "numeric"
    },
    "latitude_delta": {
      "table": "worlds",
      "type": "numeric"
    },
    "longitude": {
      "table": "tiles",
      "type": "numeric"
    },
    "nutritional_value": {
      "table": "nutrition",
      "type": "numeric"
    },
    "nwaterfalls": {
      "table": "tiles",
      "type": "numeric"
    },
    "pressure": {
      "table": "tiles",
      "type": "numeric"
    },
    "pressure_default": {
      "table": "worlds",
      "type": "numeric"
    },
    "pressure_maximum": {
      "table": "worlds",
      "type": "numeric"
    },
    "pressure_maximum_gradient": {
      "table": "worlds",
      "type": "numeric"
    },
    "pressure_minimum": {
      "table": "worlds",
      "type": "numeric"
    },
    "pressure_percentage": {
      "table": "worlds",
      "type": "numeric"
    },
    "pressure_randomness": {
      "table": "worlds",
      "type": "numeric"
    },
    "race": {
      "table": "",
      "type": "numeric"
    },
    "salinity": {
      "table": "tiles",
      "type": "numeric"
    },
    "salinity_maximum": {
      "table": "worlds",
      "type": "numeric"
    },
    "salinity_minimum": {
      "table": "worlds",
      "type": "numeric"
    },
    "seconds_per_tick": {
      "table": "worlds",
      "type": "numeric"
    },
    "self_preservation": {
      "table": "instincts",
      "type": "numeric"
    },
    "shape": {
      "table": "physical_appearance",
      "type": "numeric"
    },
    "soil_humidity": {
      "table": "tiles",
      "type": "numeric"
    },
    "soil_humidity_maximum": {
      "table": "worlds",
      "type": "numeric"
    },
    "soil_humidity_minimum": {
      "table": "worlds",
      "type": "numeric"
    },
    "soil_quality": {
      "table": "tiles",
      "type": "numeric"
    },
    "specific_mass": {
      "table": "physical_properties",
      "type": "numeric"
    },
    "speed": {
      "table": "physical",
      "type": "numeric"
    },
    "stamina": {
      "table": "game_stats",
      "type": "numeric"
    },
    "stealth": {
      "table": "mental",
      "type": "numeric"
    },
    "strength": {
      "table": "physical",
      "type": "numeric"
    },
    "temperature": {
      "table": "tiles",
      "type": "numeric"
    },
    "temperature_maximum": {
      "table": "worlds",
      "type": "numeric"
    },
    "temperature_maximum_gradient": {
      "table": "worlds",
      "type": "numeric"
    },
    "temperature_minimum": {
      "table": "worlds",
      "type": "numeric"
    },
    "temperature_percentage": {
      "table": "worlds",
      "type": "numeric"
    },
    "temperature_randomness": {
      "table": "worlds",
      "type": "numeric"
    },
    "thirst": {
      "boundaries": {
        "dehydrated": 1000,
        "dehydrating": 850,
        "full": -1,
        "moderately_thirsty": 250,
        "thirsty": 450,
        "very_thirsty": 650
      },
      "table": "game_stats",
      "type": "numeric"
    },
    "tick_of_day": {
      "table": "stats",
      "type": "numeric"
    },
    "ticks_per_day": {
      "table": "worlds",
      "type": "numeric"
    },
    "tiredness": {
      "table": "game_stats",
      "type": "numeric"
    },
    "waterfall_percentage": {
      "table": "worlds",
      "type": "numeric"
    },
    "waterfall_randomness": {
      "table": "worlds",
      "type": "numeric"
    },
    "wisdom": {
      "table": "spiritual",
      "type": "numeric"
    },
    "world_tilt": {
      "table": "worlds",
      "type": "numeric"
    },
    "year": {
      "table": "stats",
      "type": "numeric"
    }
  },
  "directories": [
    "armor",
    "elements",
    "classes",
    "character_classes",
    "clothes",
    "biomes",
    "meta",
    "worlds",
    "biome_ecoregions",
    "proto_ecoregions",
    "game_ecoregions",
    "locomotion",
    "races",
    "senses",
    "admin",
    "fallback",
    "coastlines",
    "resources",
    "resource_classes",
    "terrains",
    "meta_ecoregions",
    "uniques",
    "vehicles",
    "weapons",
    "worlds"
  ]
}
