{
  "id": "bag",
  "type": "thing",
  "classes": [
    "object"
  ],
  "tags": [
    "describe_if_recognized",
    "is_container",
    "can_be_picked"
  ],
  "attributes": {
    "color": 4.5,
    "diaphaneity": 2
  },
  "plugs": [
    {
      "name": "placed",
      "ord": 1,
      "slot_type": "placement",
      "value": 1
    },
    {
      "name": "carrying",
      "ord": 2,
      "slot_type": "carry",
      "value": 2
    },
    {
      "name": "wielding",
      "ord": 4,
      "slot_type": "wield",
      "value": 1
    },
    {
      "name": "holding",
      "ord": 3,
      "slot_type": "grip",
      "value": 1
    }
  ],
  "slots": [
    {
      "closure": 0.0,
      "name": "contains",
      "ord": 1,
      "slot_type": "contain",
      "value": 12
    }
  ]
}
