{
  "id": "plate_mail",
  "type": "armor",
  "classes": [
    "object"
  ],
  "tags": [
    "describe_if_recognized",
    "can_be_picked"
  ],
  "plugs": [
    {
      "name": "wearing",
      "ord": 1,
      "slot_type": "body_slot",
      "value": 1
    },
    {
      "name": "placed",
      "ord": 2,
      "slot_type": "placement",
      "value": 4
    },
    {
      "name": "carrying",
      "ord": 3,
      "slot_type": "carry",
      "value": 8
    }
  ]
}
