{
  "created": 1620823500,
  "dbhost": "localhost",
  "dbname": "adv",
  "dbpass": "",
  "dbport": 5432,
  "dbuser": "adv",
  "description": [],
  "games": [],
  "last-updated": 1620945716,
  "mods": [
    "custom"
  ],
  "name": "middleearthmap",
  "owner": "spiridon",
  "pause-message": [],
  "paused": false,
  "seconds-per-tick": 120,
  "title": "middleearthmap"
}
