{
  "id": "steep_ford",
  "type": "ecoregion",
  "classes": [],
  "tags": [],
  "triggers": [
    {
      "label": "define_pathway_jobs",
      "conditions": [
        {
          "label": "steep_asc",
          "arg": "steep_asc",
          "value": 1,
          "write": "walk"
        },
        {
          "label": "steep_asc",
          "arg": "steep_asc",
          "value": 1,
          "write": "ride"
        },
        {
          "label": "steep_desc",
          "arg": "steep_desc",
          "value": 1,
          "write": "walk"
        },
        {
          "label": "steep_desc",
          "arg": "steep_desc",
          "value": 1,
          "write": "ride"
        },
        {
          "label": "wild_asc",
          "arg": "wild_asc",
          "value": 1,
          "write": "hike"
        },
        {
          "label": "wild_asc",
          "arg": "wild_asc",
          "value": 1,
          "write": "ride"
        },
        {
          "label": "wild_desc",
          "arg": "wild_desc",
          "value": 1,
          "write": "descend"
        },
        {
          "label": "wild_desc",
          "arg": "wild_desc",
          "value": 1,
          "write": "ride"
        },
        {
          "label": "unpassable_asc",
          "arg": "unpassable_asc",
          "value": 1,
          "write": "climb"
        },
        {
          "label": "unpassable_desc",
          "arg": "unpassable_desc",
          "value": 1,
          "write": "fall"
        }
      ],
      "tags": [],
      "task": "define_pathway_jobs"
    }
  ]
}
