{
  "id": "farmer",
  "type": "character_class",
  "classes": [],
  "tags": [],
  "triggers": [
    {
      "label": "modify_dexterity",
      "conditions": [
        {
          "label": "apply_factor",
          "type": "factor",
          "value": 1.1
        }
      ],
      "tags": [],
      "task": "dexterity",
      "type": "modifier"
    }
  ]
}
