{
  "id": "world",
  "type": "world",
  "classes": [],
  "tags": [],
  "slots": [
    {
      "closure": 0.0,
      "name": "world",
      "ord": 1,
      "slot_type": "world_slot",
      "value": -1
    }
  ]
}
